<?xml version="1.0"?>
<gpx>
  <wpt lat='33.749272' lon='-84.388261'><name>Atlanta, Georgia</name></wpt>
  <wpt lat='42.7335'   lon='-84.5467'><name>Lansing, Michigan</name></wpt>
  <wpt lat='32.361667' lon='-86.279167'><name>Montgomery, Alabama</name></wpt>
  <wpt lat='38.576667' lon='-92.173611'><name>Jefferson City, Missouri</name></wpt>
  <wpt lat='41.590833' lon='-93.620833'><name>Des Moines, Iowa</name></wpt>
</gpx>