pickupscheduleid,studentid,startdate,enddate
1,11,2015-02-01 00:00:00,2015-02-01 00:00:00
11,12,2015-02-01 00:00:00,2015-02-01 00:00:00
13,13,2015-02-01 00:00:00,2015-02-01 00:00:00
14,14,2015-02-01 00:00:00,2015-02-01 00:00:00
4,4,2015-02-01 00:00:00,2015-06-01 00:00:00
41,41,2015-02-01 00:00:00,2015-06-01 00:00:00
42,42,2015-02-01 00:00:00,2015-06-01 00:00:00
43,43,2015-02-01 00:00:00,2015-06-01 00:00:00
