studentcircleid,studentid,name,circletypeid
1,13,FranksTrusted,1
11,13,FranksScheduled,2
12,14,EmptyJeffsTrusted,1
13,14,EmptyJeffsScheduled,2
4,4,RobertsTrusted,1
41,41,RichardsTrusted,1
42,42,GarysTrusted,1